<svg width="25" height="25" viewBox="0 0 25 25" fill="none" xmlns="http://www.w3.org/2000/svg">
<path d="M13 0C8.02429 0 4 3.9125 4 8.75C4 15.3125 13 25 13 25C13 25 22 15.3125 22 8.75C22 3.9125 17.9757 0 13 0ZM13 11.875C12.1475 11.875 11.33 11.5458 10.7272 10.9597C10.1244 10.3737 9.78571 9.5788 9.78571 8.75C9.78571 7.9212 10.1244 7.12634 10.7272 6.54029C11.33 5.95424 12.1475 5.625 13 5.625C13.8525 5.625 14.67 5.95424 15.2728 6.54029C15.8756 7.12634 16.2143 7.9212 16.2143 8.75C16.2143 9.5788 15.8756 10.3737 15.2728 10.9597C14.67 11.5458 13.8525 11.875 13 11.875Z" fill="#FF7F50"/>
</svg>
