<svg width="50" height="50" viewBox="0 0 50 50" fill="none" xmlns="http://www.w3.org/2000/svg">
<path d="M36.6211 19.4336C38.0534 18.2617 38.9648 17.2852 39.3555 16.5039C38.5091 16.8945 37.5 17.1875 36.3281 17.3828C37.5 16.5365 38.2812 15.4948 38.6719 14.2578C37.3698 14.974 36.1654 15.4297 35.0586 15.625C34.2773 14.7135 33.2682 14.1764 32.0312 14.0137C30.7943 13.8509 29.6387 14.0137 28.5645 14.502C27.4902 14.9902 26.6276 15.804 25.9766 16.9434C25.3255 18.0827 25.1628 19.3359 25.4883 20.7031C21.1263 20.4427 17.2852 18.5221 13.9648 14.9414C13.2487 16.2435 13.1022 17.6595 13.5254 19.1895C13.9486 20.7194 14.6484 21.7773 15.625 22.3633C14.9089 22.2982 14.1276 22.0703 13.2812 21.6797C13.3464 24.4792 14.7786 26.3346 17.5781 27.2461C16.7969 27.4414 16.0156 27.474 15.2344 27.3438C16.0156 29.6875 17.7409 30.9896 20.4102 31.25C19.4336 32.0964 18.1641 32.7311 16.6016 33.1543C15.0391 33.5775 13.5742 33.6914 12.207 33.4961C15.1367 35.319 18.1315 36.1654 21.1914 36.0352C25.7487 35.8398 29.4434 34.2285 32.2754 31.2012C35.1074 28.1738 36.556 24.2513 36.6211 19.4336ZM41.4062 4.19922C42.5781 4.19922 43.571 4.60612 44.3848 5.41992C45.1986 6.23372 45.6055 7.19401 45.6055 8.30078V41.6992C45.6055 42.806 45.1986 43.7663 44.3848 44.5801C43.571 45.3939 42.5781 45.8008 41.4062 45.8008H8.10547C6.93359 45.8008 5.94076 45.3939 5.12695 44.5801C4.31315 43.7663 3.90625 42.806 3.90625 41.6992V8.30078C3.90625 7.19401 4.31315 6.23372 5.12695 5.41992C5.94076 4.60612 6.93359 4.19922 8.10547 4.19922H41.4062Z" fill="#FF7F50"/>
</svg>
